id,action_time,object_id,object_repr,change_message,content_type_id,user_id,action_flag
1,2021-02-18 18:36:00.744363,1,Development,"[{""added"": {}}]",7,1,1
2,2021-02-18 18:36:15.474615,1,Use of version control systems,"[{""added"": {}}]",10,1,1
3,2021-02-18 18:36:34.720242,1,Crawl,"[{""added"": {}}]",9,1,1
4,2021-02-18 18:36:41.442434,2,Walk,"[{""added"": {}}]",9,1,1
5,2021-02-18 18:36:46.165790,3,Run,"[{""added"": {}}]",9,1,1
6,2021-02-18 18:37:05.524691,1,No version control,"[{""added"": {}}]",11,1,1
7,2021-02-18 18:37:38.853157,2,version control on some aspects of the code but not on all artifacts or infra as code,"[{""added"": {}}]",11,1,1
8,2021-02-18 18:38:07.087943,3,full version control for all aspects of code and infra including library files.,"[{""added"": {}}]",11,1,1
9,2021-02-18 18:38:28.259584,1,devops capability - V1.0,"[{""added"": {}}]",12,1,1
10,2021-02-18 18:46:56.924230,1,test - 2021-02-18,"[{""added"": {}}]",13,1,1
